tests/testforImpulseGen/simulation/qsim/test.msim.vcd
$comment
	File created using the following command:
		vcd file test.msim.vcd -direction
$end
$date
	Sat May 27 14:48:25 2017
$end
$version
	ModelSim Version 10.1d
$end
$timescale
	1ps
$end
$scope module test_vlg_vec_tst $end
$var reg 1 ! clk_in $end
$var reg 1 " impulse_in $end
$var reg 1 # start $end
$var wire 1 $ clk $end
$var wire 1 % start_out $end
$var wire 1 & test [5] $end
$var wire 1 ' test [4] $end
$var wire 1 ( test [3] $end
$var wire 1 ) test [2] $end
$var wire 1 * test [1] $end
$var wire 1 + test [0] $end
$var wire 1 , sampler $end
$scope module i1 $end
$var wire 1 - gnd $end
$var wire 1 . vcc $end
$var wire 1 / unknown $end
$var tri1 1 0 devclrn $end
$var tri1 1 1 devpor $end
$var tri1 1 2 devoe $end
$var wire 1 3 start~combout $end
$var wire 1 4 impulse_in~combout $end
$var wire 1 5 i1|Add0~2 $end
$var wire 1 6 i1|Add0~2COUT1_41 $end
$var wire 1 7 i1|Add0~6_combout $end
$var wire 1 8 i1|cnt[0]~0 $end
$var wire 1 9 i1|Add0~8 $end
$var wire 1 : i1|Add0~8COUT1_43 $end
$var wire 1 ; i1|Add0~12_combout $end
$var wire 1 < i1|Add0~14 $end
$var wire 1 = i1|Add0~14COUT1_44 $end
$var wire 1 > i1|Add0~18_combout $end
$var wire 1 ? i1|Add0~20 $end
$var wire 1 @ i1|Add0~24_combout $end
$var wire 1 A i1|Add0~26 $end
$var wire 1 B i1|Add0~26COUT1_46 $end
$var wire 1 C i1|Add0~30_combout $end
$var wire 1 D i1|clk_out~0_combout $end
$var wire 1 E i1|pre_start~regout $end
$var wire 1 F i1|Add0~0_combout $end
$var wire 1 G i1|clk_out~1_combout $end
$var wire 1 H i1|clk_out~regout $end
$var wire 1 I i1|cnt [5] $end
$var wire 1 J i1|cnt [4] $end
$var wire 1 K i1|cnt [3] $end
$var wire 1 L i1|cnt [2] $end
$var wire 1 M i1|cnt [1] $end
$var wire 1 N i1|cnt [0] $end
$upscope $end
$upscope $end
$enddefinitions $end
#0
$dumpvars
x!
0"
0#
x$
x%
x+
x*
x)
x(
x'
x&
x,
0-
1.
x/
10
11
12
x3
x4
x5
x6
x7
x8
x9
x:
x;
x<
x=
x>
x?
x@
xA
0B
xC
xD
0E
xF
xG
0H
0N
0M
0L
0K
0J
0I
$end
#1132
03
#1163
04
#1504
0G
#1643
1F
#1646
06
#1650
1:
05
#1654
19
#1761
0=
#1777
0<
#1869
0D
#1964
1?
#2082
0A
#2229
0C
#2465
07
#2469
1;
#2592
0>
#2939
0@
#4191
0'
#4202
0(
#4212
0*
#4290
0+
#4309
0$
#4330
0&
#5470
1)
#6771
08
#8595
0%
#20000
1"
0,
#21163
14
#40000
0"
1,
#41163
04
#60000
1"
0,
#61163
14
#80000
0"
1,
#81163
04
#100000
1"
0,
#101163
14
#120000
0"
1,
#121163
04
#140000
1"
0,
#141163
14
#160000
0"
1,
#161163
04
#180000
1"
0,
#181163
14
#200000
0"
1,
#201163
04
#220000
1"
0,
#221163
14
#240000
0"
1,
#241000
1#
0,
#241163
04
#242132
13
#247771
18
#249595
1%
#260000
1"
1,
#261163
14
#263724
1E
1L
#264319
08
#265378
0;
#265593
1D
#266098
18
#269194
0)
#280000
0"
0,
#281163
04
#300000
1"
1,
#301163
14
#303724
1N
#305367
0F
#305370
16
#305374
15
#306189
17
#308014
1+
#320000
0"
0,
#321163
04
#340000
1"
1,
#341163
14
#343724
1M
0N
#345367
1F
#345370
06
#345371
07
#345374
05
#345575
1G
#346189
17
#347936
1*
#348014
0+
#360000
0"
0,
#361163
04
#380000
1"
1,
#381163
14
#383724
1N
1H
#385367
0F
#385370
16
#385374
15
#385481
0:
#385497
09
#385575
0G
#386189
07
#386312
1;
#388014
1+
#388033
1$
#400000
0"
0,
#401163
04
#420000
1"
1,
#421163
14
#423724
0M
0L
0N
0H
#425367
1F
#425370
06
#425371
17
#425374
1:
05
#425378
19
0;
#425593
0D
#426098
08
#426189
07
#426193
1;
#427936
0*
#428014
0+
#428033
0$
#429194
1)
#440000
0"
0,
#441163
04
#460000
1"
1,
#461163
14
#480000
0"
0,
#481163
04
#482000
0#
1,
#483132
03
#488771
18
#490595
0%
#500000
1"
0,
#501163
14
#503724
0E
1L
#504319
08
#505378
0;
#505593
1D
#506098
18
#509194
0)
#520000
0"
1,
#521163
04
#540000
1"
0,
#541163
14
#543724
1N
#545367
0F
#545370
16
#545374
15
#546189
17
#548014
1+
#560000
0"
1,
#561163
04
#580000
1"
0,
#581163
14
#583724
1M
0N
#585367
1F
#585370
06
#585371
07
#585374
05
#585575
1G
#586189
17
#587936
1*
#588014
0+
#600000
0"
1,
#601163
04
#620000
1"
0,
#621163
14
#623724
1N
1H
#625367
0F
#625370
16
#625374
15
#625481
0:
#625497
09
#625575
0G
#626189
07
#626312
1;
#628014
1+
#628033
1$
#640000
0"
1,
#641163
04
#660000
1"
0,
#661163
14
#663724
0M
0L
0N
0H
#665367
1F
#665370
06
#665371
17
#665374
1:
05
#665378
19
0;
#665593
0D
#666098
08
#666189
07
#666193
1;
#667936
0*
#668014
0+
#668033
0$
#669194
1)
#680000
0"
1,
#681163
04
#700000
1"
0,
#701163
14
#720000
0"
1,
#721163
04
#723000
1#
0,
#724132
13
#729771
18
#731595
1%
#740000
1"
1,
#741163
14
#743724
1E
1L
#744319
08
#745378
0;
#745593
1D
#746098
18
#749194
0)
#760000
0"
0,
#761163
04
#780000
1"
1,
#781163
14
#783724
1N
#785367
0F
#785370
16
#785374
15
#786189
17
#788014
1+
#800000
0"
0,
#801163
04
#820000
1"
1,
#821163
14
#823724
1M
0N
#825367
1F
#825370
06
#825371
07
#825374
05
#825575
1G
#826189
17
#827936
1*
#828014
0+
#840000
0"
0,
#841163
04
#860000
1"
1,
#861163
14
#863724
1N
1H
#865367
0F
#865370
16
#865374
15
#865481
0:
#865497
09
#865575
0G
#866189
07
#866312
1;
#868014
1+
#868033
1$
#880000
0"
0,
#881163
04
#900000
1"
1,
#901163
14
#903724
0M
0L
0N
0H
#905367
1F
#905370
06
#905371
17
#905374
1:
05
#905378
19
0;
#905593
0D
#906098
08
#906189
07
#906193
1;
#907936
0*
#908014
0+
#908033
0$
#909194
1)
#920000
0"
0,
#921163
04
#940000
1"
1,
#941163
14
#960000
0"
0,
#961163
04
#964000
0#
1,
#965132
03
#970771
18
#972595
0%
#980000
1"
0,
#981163
14
#983724
0E
1L
#984319
08
#985378
0;
#985593
1D
#986098
18
#989194
0)
